{
	"id": "027e1e1e-ede0-43cb-8aff-a55894d06602",
	"name": "Producción",
	"values": [
		{
			"key": "baseUrl",
			"value": "colectcarsapi-prd.eba-ydbanxzt.us-east-2.elasticbeanstalk.com",
			"enabled": true
		}
	],
	"_postman_variable_scope": "environment",
	"_postman_exported_at": "2023-07-04T16:08:37.102Z",
	"_postman_exported_using": "Postman/10.15.4"
}